<?xml version="1.0" encoding="UTF-8" standalone="no"?>
<svg
   xmlns:dc="http://purl.org/dc/elements/1.1/"
   xmlns:cc="http://creativecommons.org/ns#"
   xmlns:rdf="http://www.w3.org/1999/02/22-rdf-syntax-ns#"
   xmlns:svg="http://www.w3.org/2000/svg"
   xmlns="http://www.w3.org/2000/svg"
   viewBox="0 0 793.70667 793.70667"
   height="793.70667"
   width="793.70667"
   xml:space="preserve"
   id="svg2"
   version="1.1"><metadata
     id="metadata8"><rdf:RDF><cc:Work
         rdf:about=""><dc:format>image/svg+xml</dc:format><dc:type
           rdf:resource="http://purl.org/dc/dcmitype/StillImage" /></cc:Work></rdf:RDF></metadata><defs
     id="defs6"><clipPath
       id="clipPath20"
       clipPathUnits="userSpaceOnUse"><path
         id="path18"
         d="M 0,5952.77 V 0 h 5952.77 v 5952.77 z" /></clipPath></defs><g
     transform="matrix(1.3333333,0,0,-1.3333333,0,793.70667)"
     id="g10"><g
       transform="scale(0.1)"
       id="g12"><g
         id="g14"><g
           clip-path="url(#clipPath20)"
           id="g16"><path
             id="path22"
             style="fill:#a7dad1;fill-opacity:1;fill-rule:nonzero;stroke:none"
             d="M 0,0 H 5952.77 V 5952.77 H 0 Z" /><path
             id="path24"
             style="fill:#7dc6bc;fill-opacity:1;fill-rule:nonzero;stroke:none"
             d="M 0,2473.12 H 5952.77 V 5952.77 H 0 Z" /><path
             id="path26"
             style="fill:#ffffff;fill-opacity:1;fill-rule:nonzero;stroke:none"
             d="m 0,83.7617 h 5952.77 v 16.3867 H 0 Z" /><path
             id="path28"
             style="fill:#ffffff;fill-opacity:1;fill-rule:nonzero;stroke:none"
             d="m 0,191.969 h 5952.77 v 16.4023 H 0 Z" /><path
             id="path30"
             style="fill:#ffffff;fill-opacity:1;fill-rule:nonzero;stroke:none"
             d="m 0,300.219 h 5952.77 v 16.3906 H 0 Z" /><path
             id="path32"
             style="fill:#ffffff;fill-opacity:1;fill-rule:nonzero;stroke:none"
             d="m 0,408.461 h 5952.77 v 16.3906 H 0 Z" /><path
             id="path34"
             style="fill:#ffffff;fill-opacity:1;fill-rule:nonzero;stroke:none"
             d="m 0,516.691 h 5952.77 v 16.3984 H 0 Z" /><path
             id="path36"
             style="fill:#ffffff;fill-opacity:1;fill-rule:nonzero;stroke:none"
             d="m 0,624.93 h 5952.77 v 16.3984 H 0 Z" /><path
             id="path38"
             style="fill:#ffffff;fill-opacity:1;fill-rule:nonzero;stroke:none"
             d="m 0,733.18 h 5952.77 v 16.3906 H 0 Z" /><path
             id="path40"
             style="fill:#ffffff;fill-opacity:1;fill-rule:nonzero;stroke:none"
             d="m 0,841.418 h 5952.77 v 16.3906 H 0 Z" /><path
             id="path42"
             style="fill:#ffffff;fill-opacity:1;fill-rule:nonzero;stroke:none"
             d="m 0,949.629 h 5952.77 v 16.4023 H 0 Z" /><path
             id="path44"
             style="fill:#ffffff;fill-opacity:1;fill-rule:nonzero;stroke:none"
             d="m 0,1057.87 h 5952.77 v 16.3984 H 0 Z" /><path
             id="path46"
             style="fill:#ffffff;fill-opacity:1;fill-rule:nonzero;stroke:none"
             d="m 0,1166.09 h 5952.77 v 16.3906 H 0 Z" /><path
             id="path48"
             style="fill:#ffffff;fill-opacity:1;fill-rule:nonzero;stroke:none"
             d="m 0,1274.33 h 5952.77 v 16.3906 H 0 Z" /><path
             id="path50"
             style="fill:#ffffff;fill-opacity:1;fill-rule:nonzero;stroke:none"
             d="m 0,1382.57 h 5952.77 v 16.3984 H 0 Z" /><path
             id="path52"
             style="fill:#ffffff;fill-opacity:1;fill-rule:nonzero;stroke:none"
             d="m 0,1490.81 h 5952.77 v 16.4023 H 0 Z" /><path
             id="path54"
             style="fill:#ffffff;fill-opacity:1;fill-rule:nonzero;stroke:none"
             d="m 0,1599.04 h 5952.77 v 16.4023 H 0 Z" /><path
             id="path56"
             style="fill:#ffffff;fill-opacity:1;fill-rule:nonzero;stroke:none"
             d="m 0,1707.29 h 5952.77 v 16.3906 H 0 Z" /><path
             id="path58"
             style="fill:#ffffff;fill-opacity:1;fill-rule:nonzero;stroke:none"
             d="m 0,1815.53 h 5952.77 v 16.3984 H 0 Z" /><path
             id="path60"
             style="fill:#ffffff;fill-opacity:1;fill-rule:nonzero;stroke:none"
             d="m 0,1923.74 h 5952.77 v 16.4023 H 0 Z" /><path
             id="path62"
             style="fill:#ffffff;fill-opacity:1;fill-rule:nonzero;stroke:none"
             d="m 0,2031.98 h 5952.77 v 16.3984 H 0 Z" /><path
             id="path64"
             style="fill:#ffffff;fill-opacity:1;fill-rule:nonzero;stroke:none"
             d="m 0,2140.21 h 5952.77 v 16.3906 H 0 Z" /><path
             id="path66"
             style="fill:#ffffff;fill-opacity:1;fill-rule:nonzero;stroke:none"
             d="m 0,2248.45 h 5952.77 v 16.3906 H 0 Z" /><path
             id="path68"
             style="fill:#ffffff;fill-opacity:1;fill-rule:nonzero;stroke:none"
             d="m 0,2356.68 h 5952.77 v 16.3984 H 0 Z" /><path
             id="path70"
             style="fill:#ffffff;fill-opacity:1;fill-rule:nonzero;stroke:none"
             d="m 0,2464.92 h 5952.77 v 16.4023 H 0 Z" /><path
             id="path72"
             style="fill:#cee3dd;fill-opacity:1;fill-rule:nonzero;stroke:none"
             d="m 2976.38,2165.14 c -1185.16,0 -2158.177,180.18 -2262.333,410.08 l 190.391,-828.43 c 0,-243 927.642,-440.01 2071.942,-440.01 1144.3,0 2071.94,197.01 2071.94,440.01 l 190.39,828.43 C 5134.55,2345.32 4161.54,2165.14 2976.38,2165.14" /><path
             id="path74"
             style="fill:#f5fbf8;fill-opacity:1;fill-rule:nonzero;stroke:none"
             d="m 5248.12,2616.11 c 0,-249.05 -1017.11,-450.97 -2271.74,-450.97 -1254.65,0 -2271.735,201.92 -2271.735,450.97 0,249.11 1017.085,451.04 2271.735,451.04 1254.63,0 2271.74,-201.93 2271.74,-451.04" /><path
             id="path76"
             style="fill:#8a8c8d;fill-opacity:1;fill-rule:nonzero;stroke:none"
             d="m 4892.36,2918.38 c 85.35,97.4 97.71,220.16 70.32,260.64 -19.04,28.15 -209.6,34.31 -340.43,-75.58 -49.78,-41.8 -89.11,-88.56 -115.71,-134.2 -688.47,1052 -1824.39,294.33 -1985.31,834.45 -12.49,41.93 -29.94,127.73 -30.04,128.8 -38.57,394.29 -284,681.37 -551.48,681.37 -313.32,0 -516.84,-341.69 -567.32,-890.25 -30.33,-329.72 -126.31,-637.68 -337.28,-764.61 -54.676,-32.9 -131.309,-65 -131.309,-112.87 0,-60.33 160.199,-166.69 310.179,-166.69 118.86,0 219.63,44.96 256.44,107.47 127.47,-51.7 290.98,-82.8 469.3,-82.8 177.57,0 340.29,30.92 467.54,82.25 37.07,-62.22 137.57,-106.92 256.07,-106.92 60.79,0 123.08,17.59 175.88,42.4 252.74,-69.35 531,-107.78 823.29,-107.78 307.21,0 598.7,42.66 861.55,118.9 47.99,-44.85 124.03,-83.37 214.04,-103.4 166.74,-37.14 325.4,31.86 336.89,89.97 8.11,40.91 -61.96,151.79 -182.62,198.85" /><path
             id="path78"
             style="fill:#ffffff;fill-opacity:1;fill-rule:nonzero;stroke:none"
             d="m 2098.11,3992.22 c -66.55,0.55 -128.48,46.47 -146.47,66.76 -18,-20.29 -74.79,-66.21 -146.47,-66.76 -46.9,-0.35 -88.67,18.9 -116.28,48.46 31.34,-40 79.98,-65.8 134.76,-65.8 50.96,0 96.62,22.4 127.99,57.76 31.35,-35.36 77.02,-57.76 128,-57.76 54.32,0 102.62,25.37 133.99,64.79 -27.66,-28.99 -69.13,-47.82 -115.52,-47.45" /><path
             id="path80"
             style="fill:#2b2a2a;fill-opacity:1;fill-rule:nonzero;stroke:none"
             d="m 2221.49,4244.67 c -1.51,47.59 -39.86,84.88 -87.33,84.88 h -365.45 c -47.47,0 -85.83,-37.29 -87.34,-84.88 l -0.44,-28.33 0.29,-5.36 c 2.37,-62.15 60.2,-110.84 131.63,-110.84 49.98,0 100.48,28.91 112.24,54.75 4.25,9.32 10.42,22.9 26.45,22.9 16.02,0 22.2,-13.58 26.3,-22.55 11.9,-26.19 62.4,-55.1 112.39,-55.1 72.73,0 131.88,51.45 131.88,114.7 l -0.62,29.83" /><path
             id="path82"
             style="fill:#ffffff;fill-opacity:1;fill-rule:nonzero;stroke:none"
             d="m 1951.54,4177.79 c 16.02,0 22.2,-13.58 26.3,-22.55 11.9,-26.19 62.4,-55.1 112.39,-55.1 72.73,0 131.88,51.45 131.88,114.7 l -0.62,29.83 c -1.51,47.59 -39.86,84.88 -87.33,84.88 h -365.45 c -47.47,0 -85.83,-37.29 -87.34,-84.88 l -0.44,-28.33 0.29,-5.36 c 2.37,-62.15 60.2,-110.84 131.63,-110.84 49.98,0 100.48,28.91 112.24,54.75 4.25,9.32 10.42,22.9 26.45,22.9 z m 138.69,-99.51 c -54.97,0 -115.49,30.94 -132.14,67.56 -6.32,13.88 -6.94,13.55 -12.96,0.33 -16.8,-36.95 -77.31,-67.89 -132.28,-67.89 -79.23,0 -144.14,52.51 -152.63,121.35 h -0.85 l -0.18,16.89 0.01,39.43 h 1.15 c 6.86,54.31 52.58,95.46 108.36,95.46 h 365.45 c 55.77,0 101.49,-41.15 108.35,-95.46 h 0.83 l 0.33,-35.66 c 0.21,-2.72 0.3,-4.07 0.3,-5.45 0,-75.3 -68.96,-136.56 -153.74,-136.56" /><path
             id="path84"
             style="fill:#ffffff;fill-opacity:1;fill-rule:nonzero;stroke:none"
             d="m 2842.21,2959 c 54.67,-32.9 131.31,-65 131.31,-112.87 0,-35.9 -56.94,-88 -134.54,-124.4 0.08,0.02 0.16,0.07 0.23,0.11 15.96,-4.4 32.13,-8.5 48.29,-12.6 100.39,45.48 177.97,123.57 172.93,167.46 -5.45,47.57 -85.25,70.66 -143.33,97.13 -202.32,92.1 -351.82,332.55 -406.08,613.51 27.27,-274.21 146.84,-517.44 331.19,-628.34" /><path
             id="path86"
             style="fill:#ffffff;fill-opacity:1;fill-rule:nonzero;stroke:none"
             d="m 2079.64,3974.88 c -27.35,0 -53.09,6.62 -76.01,18.07 0.08,-32.43 1.94,-501.74 48.56,-653.28 7.39,-23.94 38.09,-24 45.3,0 43.31,144.21 40.6,575.2 39.86,645.23 -18.02,-6.48 -37.45,-10.02 -57.71,-10.02" /><path
             id="path88"
             style="fill:#ffffff;fill-opacity:1;fill-rule:nonzero;stroke:none"
             d="m 1823.65,3974.88 c -20.67,0 -40.45,3.69 -58.77,10.4 0.32,-68.76 4.11,-501.25 48.53,-645.61 7.38,-23.94 38.07,-24 45.3,0 45.34,150.98 40.25,616.35 39.78,652.67 -22.62,-11.09 -47.96,-17.46 -74.84,-17.46" /></g></g></g></g></svg>